[
    {
        "name": "Mr. SimDev",
        "quote" : "This guys on his game. He helped me and my company out and I cant thank him enough!", 
        "rating" : 5
   },
   {
       
        "name": "Lady Dove",
        "quote" : "I was so stressed, I couldn't believe my bad luck that day. Smiling Locksmith helped me get back into my office and quickly. With their help, I made my deadline. Thank you Smiling Locksmith!!  ",
        "rating" : 5
   },
    {
        "name": "Killroy Powerhead",
        "quote": "These guys rock, friendly and professional. Got me a new smart key for my car on the spot. Amazing",
        "rating": 5
    }
]
