[{  
        "viewID": "service-automotive",
        "icon": "car",
        "header": "Automotive",
        "description": "Locked out? Need a new car key? NO PROBLEM ! Smiling Locksmith can solve your automotive key problems.",
        "selctions":[{
                "itemID": "lockedOut",
                "header": "Locked Out",
                "description" : "The standard chunk of Lorem Ipsum used since the 1500s is reproduced below for those interested. Sections 1.10.32 and 1.10.33 from \"de Finibus Bonorum et Malorum\" by Cicero are also reproduced in their exact original form, accompanied by English versions from the 1914 translation by H. Rackham.",
                "imageURL" : "/views/img/services/lockout.jpg"
                },
                {
                "itemID": "reKeyed",
                "header": "reKey",
                "description" : "The standard chunk of Lorem Ipsum used since the 1500s is reproduced below for those interested. Sections 1.10.32 and 1.10.33 from \"de Finibus Bonorum et Malorum\" by Cicero are also reproduced in their exact original form, accompanied by English versions from the 1914 translation by H. Rackham.",
                "imageURL" : "/views/img/services/rekey.jpg"
                },
                {
                "itemID": "lockInstall",
                "header": "Lock Installation",
                "description" : "The standard chunk of Lorem Ipsum used since the 1500s is reproduced below for those interested. Sections 1.10.32 and 1.10.33 from \"de Finibus Bonorum et Malorum\" by Cicero are also reproduced in their exact original form, accompanied by English versions from the 1914 translation by H. Rackham.",
                "imageURL" : "/views/img/services/lockInstall.jpg"

                },
                {
                "itemID": "Door Installation",
                "header": "Security Door Installation",
                "description" : "The standard chunk of Lorem Ipsum used since the 1500s is reproduced below for those interested. Sections 1.10.32 and 1.10.33 from \"de Finibus Bonorum et Malorum\" by Cicero are also reproduced in their exact original form, accompanied by English versions from the 1914 translation by H. Rackham.",
                "imageURL" : "/views/img/services/doorInstall.jpg"
            }
            ]},
    {
        "viewID": "service-residential",
        "icon": "home",
        "header": "Residential",
        "description": "Locked out? Need a new car key? NO PROBLEM ! Smiling Locksmith can solve your automotive key problems.",
        "selctions":[{
                "itemID": "lockedOut",
                "header": "Locked Out",
                "description" : "The standard chunk of Lorem Ipsum used since the 1500s is reproduced below for those interested. Sections 1.10.32 and 1.10.33 from \"de Finibus Bonorum et Malorum\" by Cicero are also reproduced in their exact original form, accompanied by English versions from the 1914 translation by H. Rackham.",
                "imageURL" : "/views/img/services/lockout.jpg"
                },
                {
                "itemID": "reKeyed",
                "header": "reKey",
                "description" : "The standard chunk of Lorem Ipsum used since the 1500s is reproduced below for those interested. Sections 1.10.32 and 1.10.33 from \"de Finibus Bonorum et Malorum\" by Cicero are also reproduced in their exact original form, accompanied by English versions from the 1914 translation by H. Rackham.",
                "imageURL" : "/views/img/services/rekey.jpg"
                },
                {
                "itemID": "lockInstall",
                "header": "Lock Installation",
                "description" : "The standard chunk of Lorem Ipsum used since the 1500s is reproduced below for those interested. Sections 1.10.32 and 1.10.33 from \"de Finibus Bonorum et Malorum\" by Cicero are also reproduced in their exact original form, accompanied by English versions from the 1914 translation by H. Rackham.",
                "imageURL" : "/views/img/services/lockInstall.jpg"

                },
                {
                "itemID": "Door Installation",
                "header": "Security Door Installation",
                "description" : "The standard chunk of Lorem Ipsum used since the 1500s is reproduced below for those interested. Sections 1.10.32 and 1.10.33 from \"de Finibus Bonorum et Malorum\" by Cicero are also reproduced in their exact original form, accompanied by English versions from the 1914 translation by H. Rackham.",
                "imageURL" : "/views/img/services/doorInstall.jpg"
            }
            ]
            },
    {
        "viewID": "service-commercial",
        "icon": "building",
        "header": "Commercial",
        "description": "Locked out? Need a new car key? NO PROBLEM ! Smiling Locksmith can solve your automotive key problems.",
        "selctions":[{
                "itemID": "lockedOut",
                "header": "Locked Out",
                "description" : "The standard chunk of Lorem Ipsum used since the 1500s is reproduced below for those interested. Sections 1.10.32 and 1.10.33 from \"de Finibus Bonorum et Malorum\" by Cicero are also reproduced in their exact original form, accompanied by English versions from the 1914 translation by H. Rackham.",
                "imageURL" : "/views/img/services/lockout.jpg"
                },
                {
                "itemID": "reKeyed",
                "header": "reKey",
                "description" : "The standard chunk of Lorem Ipsum used since the 1500s is reproduced below for those interested. Sections 1.10.32 and 1.10.33 from \"de Finibus Bonorum et Malorum\" by Cicero are also reproduced in their exact original form, accompanied by English versions from the 1914 translation by H. Rackham.",
                "imageURL" : "/views/img/services/rekey.jpg"
                },
                {
                "itemID": "lockInstall",
                "header": "Lock Installation",
                "description" : "The standard chunk of Lorem Ipsum used since the 1500s is reproduced below for those interested. Sections 1.10.32 and 1.10.33 from \"de Finibus Bonorum et Malorum\" by Cicero are also reproduced in their exact original form, accompanied by English versions from the 1914 translation by H. Rackham.",
                "imageURL" : "/views/img/services/lockInstall.jpg"

                },
                {
                "itemID": "Door Installation",
                "header": "Security Door Installation",
                "description" : "The standard chunk of Lorem Ipsum used since the 1500s is reproduced below for those interested. Sections 1.10.32 and 1.10.33 from \"de Finibus Bonorum et Malorum\" by Cicero are also reproduced in their exact original form, accompanied by English versions from the 1914 translation by H. Rackham.",
                "imageURL" : "/views/img/services/doorInstall.jpg"
            }
            ]
    },
    {
        "viewID": "service-highSecurity",
        "icon": "lock",
        "header": "High Security",
        "description": "Locked out? Need a new car key? NO PROBLEM ! Smiling Locksmith can solve your automotive key problems.",
        "selctions":[{
                "itemID": "lockedOut",
                "header": "Locked Out",
                "description" : "The standard chunk of Lorem Ipsum used since the 1500s is reproduced below for those interested. Sections 1.10.32 and 1.10.33 from \"de Finibus Bonorum et Malorum\" by Cicero are also reproduced in their exact original form, accompanied by English versions from the 1914 translation by H. Rackham.",
                "imageURL" : "/views/img/services/lockout.jpg"
                },
                {
                "itemID": "reKeyed",
                "header": "reKey",
                "description" : "The standard chunk of Lorem Ipsum used since the 1500s is reproduced below for those interested. Sections 1.10.32 and 1.10.33 from \"de Finibus Bonorum et Malorum\" by Cicero are also reproduced in their exact original form, accompanied by English versions from the 1914 translation by H. Rackham.",
                "imageURL" : "/views/img/services/rekey.jpg"
                },
                {
                "itemID": "lockInstall",
                "header": "Lock Installation",
                "description" : "The standard chunk of Lorem Ipsum used since the 1500s is reproduced below for those interested. Sections 1.10.32 and 1.10.33 from \"de Finibus Bonorum et Malorum\" by Cicero are also reproduced in their exact original form, accompanied by English versions from the 1914 translation by H. Rackham.",
                "imageURL" : "/views/img/services/lockInstall.jpg"

                },
                {
                "itemID": "doorInstall",
                "header": "Security Door Installation",
                "description" : "The standard chunk of Lorem Ipsum used since the 1500s is reproduced below for those interested. Sections 1.10.32 and 1.10.33 from \"de Finibus Bonorum et Malorum\" by Cicero are also reproduced in their exact original form, accompanied by English versions from the 1914 translation by H. Rackham.",
                "imageURL" : "/views/img/services/doorInstall.jpg"
            }
            ]
    }
]

