<?xml version="1.0" encoding="UTF-8" standalone="no"?>
<!DOCTYPE svg PUBLIC "-//W3C//DTD SVG 20010904//EN"
              "http://www.w3.org/TR/2001/REC-SVG-20010904/DTD/svg10.dtd">

<svg xmlns="http://www.w3.org/2000/svg"
     width="6.20833in" height="5.80556in"
     viewBox="0 0 447 418">
  <path id="Selection #4"
        fill="none" stroke="black" stroke-width="1"
        d="M 0.00,359.00
           C 0.02,348.34 3.62,347.38 11.00,340.00
             11.00,340.00 29.00,322.00 29.00,322.00
             29.00,322.00 116.00,235.00 116.00,235.00
             116.00,235.00 170.00,181.00 170.00,181.00
             170.00,181.00 185.00,166.00 185.00,166.00
             187.14,163.86 191.74,159.65 192.62,157.00
             193.84,154.44 192.82,150.68 192.62,148.00
             191.64,142.69 191.01,137.36 191.00,132.00
             190.91,74.48 223.54,25.33 279.00,7.00
             289.41,3.56 301.02,1.02 312.00,1.00
             312.00,1.00 327.00,1.00 327.00,1.00
             350.18,1.04 376.40,11.30 395.00,24.74
             419.42,42.40 436.54,67.81 443.87,97.00
             445.85,104.85 446.99,109.80 447.00,118.00
             447.00,118.00 447.00,141.00 447.00,141.00
             446.74,162.53 434.69,190.10 421.76,207.00
             400.12,235.30 362.18,256.94 326.00,256.86
             326.00,256.86 306.00,256.86 306.00,256.86
             303.28,256.39 293.91,254.63 292.00,255.04
             288.41,255.80 283.64,261.36 281.00,264.00
             281.00,264.00 265.00,280.00 265.00,280.00
             262.76,282.24 258.68,286.64 256.00,287.98
             253.57,289.19 250.65,288.99 248.00,289.00
             248.00,289.00 191.00,289.00 191.00,289.00
             191.00,289.00 191.00,321.00 191.00,321.00
             191.00,321.00 159.00,321.00 159.00,321.00
             159.00,321.00 159.00,353.00 159.00,353.00
             159.00,353.00 127.00,353.00 127.00,353.00
             127.00,353.00 127.00,378.00 127.00,378.00
             127.00,378.00 126.40,385.00 126.40,385.00
             126.40,385.00 110.00,403.00 110.00,403.00
             110.00,403.00 95.00,416.40 95.00,416.40
             95.00,416.40 88.00,417.00 88.00,417.00
             88.00,417.00 0.00,417.00 0.00,417.00
             0.00,417.00 0.00,359.00 0.00,359.00 Z
           M 323.53,81.00
           C 311.56,101.96 327.25,129.97 352.00,128.63
             386.06,126.77 393.38,82.27 365.00,68.63
             360.37,66.41 355.11,65.42 350.00,65.37
             338.66,66.71 329.48,70.58 323.53,81.00 Z
           M 149.00,235.00
           C 149.00,235.00 69.00,315.00 69.00,315.00
             69.00,315.00 43.00,341.00 43.00,341.00
             35.45,348.55 31.02,350.03 31.00,361.00
             31.00,361.00 31.00,384.00 31.00,384.00
             31.00,384.00 73.00,343.00 73.00,343.00
             73.00,343.00 153.00,263.00 153.00,263.00
             153.00,263.00 179.00,237.00 179.00,237.00
             186.55,229.45 190.98,227.97 191.00,217.00
             191.00,217.00 191.00,194.00 191.00,194.00
             191.00,194.00 149.00,235.00 149.00,235.00 Z" />
</svg>
