<?xml version="1.0" encoding="UTF-8" standalone="no"?>
<!DOCTYPE svg PUBLIC "-//W3C//DTD SVG 20010904//EN"
              "http://www.w3.org/TR/2001/REC-SVG-20010904/DTD/svg10.dtd">

<svg xmlns="http://www.w3.org/2000/svg"
     width="14.2209in" height="14.2209in"
     viewBox="0 0 2318 2318">
  <path id="Imported Path copy #2"
        fill="none" stroke="black" stroke-width="1"
        d="M 1464.96,1215.82
           C 1464.96,1215.82 1464.96,1132.70 1464.96,1132.70
             1464.96,1029.38 1381.25,945.67 1277.94,945.67
             1174.65,945.67 1090.94,1029.38 1090.94,1132.70
             1090.94,1132.70 1090.94,1215.82 1090.94,1215.82
             1056.50,1215.82 1028.59,1243.71 1028.59,1278.14
             1028.59,1278.14 1028.59,1423.60 1028.59,1423.60
             1028.59,1526.91 1112.30,1610.63 1215.62,1610.63
             1215.62,1610.63 1340.28,1610.63 1340.28,1610.63
             1443.59,1610.63 1527.30,1526.91 1527.30,1423.60
             1527.30,1423.60 1527.30,1278.14 1527.30,1278.14
             1527.30,1243.71 1499.37,1215.82 1464.96,1215.82 Z
           M 1132.50,1132.70
           C 1132.50,1052.36 1197.62,987.23 1277.94,987.23
             1358.27,987.23 1423.40,1052.36 1423.40,1132.70
             1423.40,1132.70 1423.40,1215.82 1423.40,1215.82
             1423.40,1215.82 1381.84,1215.82 1381.84,1215.82
             1381.84,1215.82 1381.84,1132.74 1381.84,1132.74
             1381.84,1075.34 1335.34,1028.84 1277.94,1028.84
             1220.55,1028.84 1174.06,1075.34 1174.06,1132.74
             1174.06,1132.74 1174.06,1215.82 1174.06,1215.82
             1174.06,1215.82 1132.50,1215.82 1132.50,1215.82
             1132.50,1215.82 1132.50,1132.70 1132.50,1132.70 Z
           M 1361.06,1132.70
           C 1361.06,1132.70 1361.06,1215.82 1361.06,1215.82
             1361.06,1215.82 1194.84,1215.82 1194.84,1215.82
             1194.84,1215.82 1194.84,1132.70 1194.84,1132.70
             1194.84,1086.79 1232.05,1049.57 1277.94,1049.57
             1323.84,1049.57 1361.06,1086.79 1361.06,1132.70 Z
           M 1485.74,1340.48
           C 1485.74,1340.48 1485.74,1423.60 1485.74,1423.60
             1485.74,1503.80 1420.48,1569.06 1340.28,1569.06
             1340.28,1569.06 1215.62,1569.06 1215.62,1569.06
             1135.42,1569.06 1070.15,1503.80 1070.15,1423.60
             1070.15,1423.60 1070.15,1278.14 1070.15,1278.14
             1070.15,1266.68 1079.46,1257.38 1090.94,1257.38
             1104.79,1257.38 1118.62,1257.38 1132.50,1257.38
             1132.50,1257.38 1423.40,1257.38 1423.40,1257.38
             1437.25,1257.38 1451.09,1257.38 1464.96,1257.38
             1476.42,1257.38 1485.74,1266.68 1485.74,1278.14
             1485.74,1278.14 1485.74,1340.48 1485.74,1340.48 Z
           M 1277.94,1340.48
           C 1300.89,1340.48 1319.50,1359.09 1319.50,1382.04
             1319.50,1394.69 1312.68,1418.78 1305.67,1437.77
             1299.99,1453.12 1294.19,1465.12 1277.94,1465.12
             1263.00,1465.12 1255.91,1452.98 1250.25,1437.57
             1243.30,1418.62 1236.40,1394.67 1236.40,1382.04
             1236.40,1359.09 1255.01,1340.48 1277.94,1340.48
             1277.94,1340.48 1277.94,1340.48 1277.94,1340.48 Z" />
</svg>
