<?xml version="1.0" encoding="UTF-8" standalone="no"?>
<!DOCTYPE svg PUBLIC "-//W3C//DTD SVG 20010904//EN"
              "http://www.w3.org/TR/2001/REC-SVG-20010904/DTD/svg10.dtd">

<svg xmlns="http://www.w3.org/2000/svg"
     width="3.55556in" height="3.55556in"
     viewBox="0 0 320 320">
  <path id="Imported Path copy"
        fill="none" stroke="black" stroke-width="1"
        d="M 301.25,49.50
           C 301.25,49.50 170.00,90.54 170.00,90.54
             170.00,90.54 38.75,49.50 38.75,49.50
             37.43,27.15 38.75,12.00 38.75,12.00
             38.75,12.00 170.00,49.50 170.00,49.50
             170.00,49.50 301.25,12.00 301.25,12.00
             301.25,12.00 302.57,27.15 301.25,49.50 Z
           M 41.15,69.16
           C 41.15,69.16 170.00,117.60 170.00,117.60
             170.00,117.60 298.85,69.16 298.85,69.16
             291.83,142.60 265.60,266.10 170.00,312.00
             74.40,266.10 48.18,142.60 41.15,69.16
             41.15,69.16 41.15,69.16 41.15,69.16 Z" />
</svg>
