<?xml version="1.0" encoding="UTF-8" standalone="no"?>
<!DOCTYPE svg PUBLIC "-//W3C//DTD SVG 20010904//EN"
              "http://www.w3.org/TR/2001/REC-SVG-20010904/DTD/svg10.dtd">

<svg xmlns="http://www.w3.org/2000/svg"
     width="10.1111in" height="1.25in"
     viewBox="0 0 728 90">
  <path id="Path #4"
        fill="none" stroke="black" stroke-width="1"
        d="M 192.06,17.25
           C 189.32,17.94 186.87,18.98 184.70,20.38
             182.54,21.77 180.79,23.55 179.47,25.72
             178.14,27.89 177.48,30.45 177.48,33.42
             177.48,37.59 178.91,41.05 181.77,43.80
             183.24,45.17 185.32,46.45 187.98,47.64
             190.66,48.83 193.95,49.88 197.86,50.78
             199.49,51.15 201.06,51.54 202.56,51.97
             204.07,52.39 205.41,52.88 206.58,53.44
             207.74,53.99 208.66,54.64 209.31,55.38
             209.98,56.12 210.31,56.98 210.31,57.98
             210.31,59.84 209.48,61.27 207.81,62.28
             206.14,63.28 203.94,63.78 201.19,63.78
             197.70,63.78 195.09,63.07 193.38,61.64
             191.66,60.21 190.73,57.99 190.56,54.97
             190.56,54.97 175.83,54.97 175.83,54.97
             175.83,58.25 176.42,61.15 177.61,63.66
             178.80,66.17 180.46,68.28 182.59,70.00
             184.74,71.72 187.32,73.02 190.33,73.89
             193.34,74.75 196.69,75.19 200.39,75.19
             204.15,75.19 207.55,74.79 210.58,74.00
             213.62,73.21 216.21,72.02 218.34,70.44
             220.49,68.86 222.14,66.88 223.30,64.50
             224.46,62.12 225.05,59.37 225.05,56.25
             225.05,51.87 223.52,48.30 220.45,45.55
             217.39,42.70 211.34,40.29 202.30,38.33
             198.65,37.54 196.06,36.70 194.53,35.80
             193.00,34.89 192.23,33.78 192.23,32.47
             192.23,30.94 192.88,29.75 194.17,28.91
             195.46,28.05 197.19,27.62 199.36,27.62
             202.05,27.62 204.25,28.16 205.94,29.22
             207.63,30.27 208.48,31.86 208.48,33.97
             208.48,33.97 208.48,34.44 208.48,34.44
             208.48,34.44 223.14,34.44 223.14,34.44
             223.14,34.44 223.14,33.73 223.14,33.73
             223.14,31.14 222.58,28.78 221.47,26.64
             220.36,24.50 218.80,22.66 216.80,21.12
             214.80,19.59 212.41,18.40 209.62,17.53
             206.85,16.66 203.80,16.22 200.47,16.22
             197.61,16.22 194.81,16.56 192.06,17.25 Z
           M 238.16,17.41
           C 238.16,17.41 238.16,74.00 238.16,74.00
             238.16,74.00 252.03,74.00 252.03,74.00
             252.03,74.00 252.03,31.03 252.03,31.03
             252.03,31.03 252.19,31.03 252.19,31.03
             252.19,31.03 264.08,74.00 264.08,74.00
             264.08,74.00 275.33,74.00 275.33,74.00
             275.33,74.00 287.22,31.03 287.22,31.03
             287.22,31.03 287.38,31.03 287.38,31.03
             287.38,31.03 287.38,74.00 287.38,74.00
             287.38,74.00 301.25,74.00 301.25,74.00
             301.25,74.00 301.25,17.41 301.25,17.41
             301.25,17.41 279.53,17.41 279.53,17.41
             279.53,17.41 269.78,55.14 269.78,55.14
             269.78,55.14 269.62,55.14 269.62,55.14
             269.62,55.14 259.88,17.41 259.88,17.41
             259.88,17.41 238.16,17.41 238.16,17.41 Z
           M 317.08,17.41
           C 317.08,17.41 317.08,74.00 317.08,74.00
             317.08,74.00 331.81,74.00 331.81,74.00
             331.81,74.00 331.81,17.41 331.81,17.41
             331.81,17.41 317.08,17.41 317.08,17.41 Z
           M 348.08,17.41
           C 348.08,17.41 348.08,74.00 348.08,74.00
             348.08,74.00 389.22,74.00 389.22,74.00
             389.22,74.00 389.22,61.31 389.22,61.31
             389.22,61.31 362.81,61.31 362.81,61.31
             362.81,61.31 362.81,17.41 362.81,17.41
             362.81,17.41 348.08,17.41 348.08,17.41 Z
           M 402.08,17.41
           C 402.08,17.41 402.08,74.00 402.08,74.00
             402.08,74.00 416.81,74.00 416.81,74.00
             416.81,74.00 416.81,17.41 416.81,17.41
             416.81,17.41 402.08,17.41 402.08,17.41 Z
           M 432.92,17.41
           C 432.92,17.41 432.92,74.00 432.92,74.00
             432.92,74.00 446.78,74.00 446.78,74.00
             446.78,74.00 446.78,38.72 446.78,38.72
             446.78,38.72 446.94,38.72 446.94,38.72
             446.94,38.72 466.61,74.00 466.61,74.00
             466.61,74.00 481.75,74.00 481.75,74.00
             481.75,74.00 481.75,17.41 481.75,17.41
             481.75,17.41 467.88,17.41 467.88,17.41
             467.88,17.41 467.88,52.28 467.88,52.28
             467.88,52.28 467.72,52.28 467.72,52.28
             467.72,52.28 448.06,17.41 448.06,17.41
             448.06,17.41 432.92,17.41 432.92,17.41 Z
           M 512.50,18.52
           C 509.01,20.05 506.04,22.14 503.58,24.78
             501.12,27.42 499.23,30.53 497.91,34.12
             496.59,37.72 495.94,41.58 495.94,45.70
             495.94,49.93 496.62,53.86 498.00,57.48
             499.38,61.10 501.30,64.21 503.78,66.83
             506.26,69.45 509.23,71.49 512.69,72.97
             516.16,74.45 519.98,75.19 524.16,75.19
             525.74,75.19 527.30,75.02 528.86,74.67
             530.42,74.33 531.89,73.84 533.27,73.20
             534.64,72.57 535.89,71.79 537.03,70.88
             538.16,69.95 539.13,68.93 539.92,67.81
             539.92,67.81 540.80,74.00 540.80,74.00
             540.80,74.00 550.31,74.00 550.31,74.00
             550.31,74.00 550.31,43.00 550.31,43.00
             550.31,43.00 526.53,43.00 526.53,43.00
             526.53,43.00 526.53,53.94 526.53,53.94
             526.53,53.94 536.83,53.94 536.83,53.94
             536.36,56.64 534.96,58.74 532.62,60.25
             530.30,61.75 527.40,62.50 523.92,62.50
             521.75,62.50 519.85,62.09 518.20,61.28
             516.57,60.46 515.19,59.31 514.08,57.83
             512.97,56.35 512.13,54.58 511.55,52.52
             510.96,50.45 510.67,48.18 510.67,45.70
             510.67,43.28 510.96,41.03 511.55,38.97
             512.13,36.91 512.97,35.12 514.08,33.62
             515.19,32.12 516.57,30.95 518.20,30.12
             519.85,29.30 521.72,28.89 523.83,28.89
             526.85,28.89 529.40,29.59 531.48,31.00
             533.57,32.40 534.74,34.29 535.02,36.67
             535.02,36.67 549.75,36.67 549.75,36.67
             549.44,33.13 548.49,30.08 546.91,27.52
             545.32,24.95 543.35,22.84 541.00,21.17
             538.64,19.51 536.02,18.27 533.11,17.45
             530.20,16.63 527.22,16.22 524.16,16.22
             519.88,16.22 515.99,16.98 512.50,18.52 Z" />
</svg>
