<?xml version="1.0" encoding="UTF-8" standalone="no"?>
<!DOCTYPE svg PUBLIC "-//W3C//DTD SVG 20010904//EN"
              "http://www.w3.org/TR/2001/REC-SVG-20010904/DTD/svg10.dtd">

<svg xmlns="http://www.w3.org/2000/svg"
     width="14.2222in" height="14.2222in"
     viewBox="0 0 1024 1024">
  <path id="Imported Path copy #2"
        fill="#FFCF3F" stroke="black" stroke-width="1"
        d="M 611.53,634.87
           C 611.53,634.87 611.53,699.13 611.53,699.13
             611.53,744.77 574.55,781.75 528.91,781.75
             528.91,781.75 473.84,781.75 473.84,781.75
             428.20,781.75 391.22,744.77 391.22,699.13
             391.22,699.13 391.22,634.87 391.22,634.87
             391.22,619.66 403.55,607.34 418.76,607.34
             418.76,607.34 418.76,570.62 418.76,570.62
             418.76,524.98 455.74,488.00 501.37,488.00
             547.01,488.00 583.99,524.98 583.99,570.62
             583.99,570.62 583.99,607.34 583.99,607.34
             599.19,607.34 611.53,619.66 611.53,634.87 Z
           M 437.12,607.34
           C 437.12,607.34 455.48,607.34 455.48,607.34
             455.48,607.34 455.48,570.64 455.48,570.64
             455.48,545.28 476.02,524.74 501.37,524.74
             526.73,524.74 547.27,545.28 547.27,570.64
             547.27,570.64 547.27,607.34 547.27,607.34
             547.27,607.34 565.63,607.34 565.63,607.34
             565.63,607.34 565.63,570.62 565.63,570.62
             565.63,535.13 536.86,506.36 501.37,506.36
             465.89,506.36 437.12,535.13 437.12,570.62
             437.12,570.62 437.12,607.34 437.12,607.34 Z
           M 501.37,533.90
           C 481.10,533.90 464.66,550.34 464.66,570.62
             464.66,570.62 464.66,607.34 464.66,607.34
             464.66,607.34 538.09,607.34 538.09,607.34
             538.09,607.34 538.09,570.62 538.09,570.62
             538.09,550.34 521.65,533.90 501.37,533.90 Z
           M 593.17,634.87
           C 593.17,629.81 589.05,625.70 583.99,625.70
             577.86,625.70 571.75,625.70 565.63,625.70
             565.63,625.70 437.12,625.70 437.12,625.70
             430.99,625.70 424.88,625.70 418.76,625.70
             413.69,625.70 409.58,629.81 409.58,634.87
             409.58,634.87 409.58,699.13 409.58,699.13
             409.58,734.56 438.41,763.39 473.84,763.39
             473.84,763.39 528.91,763.39 528.91,763.39
             564.34,763.39 593.17,734.56 593.17,699.13
             593.17,699.13 593.17,662.41 593.17,662.41
             593.17,662.41 593.17,634.87 593.17,634.87 Z
           M 501.37,662.41
           C 491.24,662.41 483.02,670.63 483.02,680.77
             483.02,686.35 486.07,696.93 489.14,705.30
             491.64,712.11 494.77,717.47 501.37,717.47
             508.55,717.47 511.11,712.17 513.62,705.39
             516.72,697.00 519.73,686.36 519.73,680.77
             519.73,670.63 511.51,662.41 501.37,662.41
             501.37,662.41 501.37,662.41 501.37,662.41 Z" />
</svg>
