<?xml version="1.0" encoding="UTF-8" standalone="no"?>
<!DOCTYPE svg PUBLIC "-//W3C//DTD SVG 20010904//EN"
              "http://www.w3.org/TR/2001/REC-SVG-20010904/DTD/svg10.dtd">

<svg xmlns="http://www.w3.org/2000/svg"
     width="16.6389in" height="2.04167in"
     viewBox="0 0 1198 147">
  <path id="Path #5"
        fill="#333F4B" stroke="black" stroke-width="1"
        d="M 116.58,26.55
           C 113.29,30.55 110.48,34.89 108.16,39.58
             105.83,44.27 104.05,49.20 102.83,54.38
             101.61,59.54 101.00,64.64 101.00,69.66
             101.00,74.75 101.61,79.87 102.83,85.00
             104.05,90.12 105.83,95.05 108.16,99.78
             110.48,104.51 113.29,108.91 116.58,113.00
             119.88,117.08 123.57,120.62 127.64,123.61
             127.64,123.61 129.08,120.83 129.08,120.83
             121.88,114.44 116.40,106.89 112.64,98.16
             108.88,89.42 107.00,80.08 107.00,70.14
             107.00,60.28 108.75,51.23 112.27,42.98
             115.79,34.73 121.51,26.93 129.44,19.56
             129.44,19.56 127.88,16.42 127.88,16.42
             123.64,19.17 119.88,22.55 116.58,26.55 Z
           M 187.12,65.39
           C 185.50,65.80 184.12,66.00 183.00,66.00
             179.29,66.00 176.30,64.30 174.03,60.91
             171.77,57.50 170.64,52.71 170.64,46.55
             170.64,43.56 170.94,40.75 171.55,38.11
             172.15,35.48 172.99,33.16 174.08,31.17
             175.17,29.18 176.48,27.62 178.02,26.50
             179.55,25.37 181.30,24.80 183.23,24.80
             188.09,24.80 191.93,27.07 194.75,31.62
             197.58,36.17 199.00,42.70 199.00,51.23
             199.00,57.50 198.27,63.30 196.81,68.66
             195.36,74.01 193.25,78.78 190.47,82.97
             187.70,87.15 184.27,90.62 180.20,93.39
             176.14,96.15 171.53,98.06 166.38,99.11
             166.38,99.11 166.86,101.78 166.86,101.78
             172.83,100.97 178.31,99.09 183.31,96.14
             188.31,93.20 192.61,89.52 196.20,85.12
             199.80,80.72 202.60,75.73 204.61,70.16
             206.63,64.57 207.64,58.71 207.64,52.56
             207.64,48.20 207.10,44.18 206.02,40.52
             204.93,36.84 203.38,33.67 201.36,31.00
             199.35,28.32 196.89,26.24 194.00,24.75
             191.10,23.25 187.88,22.50 184.34,22.50
             181.28,22.50 178.38,23.13 175.64,24.39
             172.91,25.64 170.54,27.36 168.52,29.55
             166.50,31.73 164.91,34.27 163.75,37.17
             162.58,40.08 162.00,43.19 162.00,46.50
             162.00,49.90 162.52,53.05 163.56,55.95
             164.60,58.86 166.00,61.34 167.77,63.41
             169.54,65.46 171.56,67.07 173.84,68.25
             176.12,69.42 178.55,70.00 181.12,70.00
             183.52,70.00 185.88,69.36 188.22,68.06
             188.22,68.06 187.12,65.39 187.12,65.39 Z
           M 249.00,36.69
           C 249.00,36.69 251.62,36.69 251.62,36.69
             251.62,36.69 252.59,31.58 252.59,31.58
             252.66,30.53 253.74,30.00 255.81,30.00
             255.81,30.00 288.06,30.00 288.06,30.00
             282.25,44.57 277.43,57.53 273.61,68.88
             269.80,80.21 266.93,90.09 265.02,98.50
             265.02,98.50 268.95,98.50 268.95,98.50
             269.67,94.07 273.49,81.93 280.42,62.08
             284.00,52.01 286.99,43.91 289.39,37.78
             291.79,31.65 293.66,27.37 295.00,24.95
             295.00,24.95 295.00,23.00 295.00,23.00
             295.00,23.00 249.00,23.00 249.00,23.00
             249.00,23.00 249.00,36.69 249.00,36.69 Z
           M 372.00,98.19
           C 372.00,98.19 366.33,97.22 366.33,97.22
             363.44,96.73 362.00,95.12 362.00,92.38
             362.00,92.38 362.00,23.00 362.00,23.00
             362.00,23.00 358.00,23.00 358.00,23.00
             350.24,30.59 343.73,36.15 338.48,39.69
             338.48,39.69 340.17,41.98 340.17,41.98
             340.17,41.98 354.00,32.67 354.00,32.67
             354.00,32.67 354.00,92.38 354.00,92.38
             354.00,94.88 352.66,96.45 349.98,97.09
             349.98,97.09 344.00,98.19 344.00,98.19
             344.00,98.19 344.00,100.00 344.00,100.00
             346.07,100.00 348.30,100.00 350.70,100.00
             353.10,100.00 355.53,100.00 358.00,100.00
             360.48,100.00 362.91,100.00 365.31,100.00
             367.71,100.00 369.94,100.00 372.00,100.00
             372.00,100.00 372.00,98.19 372.00,98.19 Z
           M 412.56,19.20
           C 420.48,26.56 426.20,34.36 429.72,42.61
             433.24,50.86 435.00,59.91 435.00,69.77
             435.00,79.71 433.12,89.05 429.36,97.78
             425.60,106.51 420.12,114.07 412.92,120.45
             412.92,120.45 414.36,123.25 414.36,123.25
             418.36,120.34 422.00,116.83 425.30,112.70
             428.60,108.58 431.41,104.15 433.72,99.42
             436.04,94.70 437.83,89.76 439.09,84.62
             440.36,79.49 441.00,74.38 441.00,69.28
             441.00,64.27 440.38,59.18 439.16,54.02
             437.94,48.84 436.16,43.91 433.84,39.22
             431.52,34.53 428.71,30.19 425.41,26.19
             422.11,22.18 418.35,18.80 414.12,16.05
             414.12,16.05 412.56,19.20 412.56,19.20 Z
           M 498.34,31.48
           C 501.20,29.50 504.23,28.50 507.44,28.50
             510.81,28.50 513.58,29.50 515.75,31.48
             517.91,33.46 519.00,36.15 519.00,39.55
             519.00,44.09 514.58,49.64 505.73,56.19
             504.77,56.92 503.85,57.65 502.97,58.38
             502.08,59.11 501.24,59.84 500.45,60.56
             500.45,60.56 501.78,62.86 501.78,62.86
             504.79,60.11 507.80,58.73 510.81,58.73
             512.72,58.73 514.48,59.18 516.09,60.08
             517.72,60.96 519.10,62.20 520.25,63.78
             521.41,65.37 522.32,67.25 522.98,69.44
             523.66,71.62 524.00,74.00 524.00,76.59
             524.00,79.51 523.52,82.29 522.56,84.92
             521.61,87.55 520.32,89.90 518.69,91.97
             517.05,94.03 515.12,95.67 512.89,96.89
             510.66,98.10 508.23,98.70 505.59,98.70
             502.41,98.70 498.62,97.01 494.25,93.61
             493.05,92.56 491.93,91.91 490.89,91.67
             489.86,91.42 488.98,91.42 488.27,91.67
             487.55,91.91 487.00,92.32 486.59,92.89
             486.20,93.45 486.00,94.06 486.00,94.70
             486.00,96.48 487.45,97.97 490.34,99.19
             493.25,100.40 497.48,101.00 503.05,101.00
             507.22,101.00 511.12,100.28 514.75,98.83
             518.38,97.38 521.52,95.42 524.17,92.94
             526.84,90.46 528.91,87.54 530.41,84.17
             531.89,80.80 532.64,77.15 532.64,73.23
             532.64,70.34 532.19,67.63 531.30,65.11
             530.41,62.58 529.14,60.41 527.48,58.61
             525.83,56.81 523.79,55.43 521.36,54.47
             518.93,53.51 516.18,53.03 513.09,53.03
             517.59,49.68 520.87,46.59 522.92,43.78
             524.97,40.97 526.00,38.01 526.00,34.89
             526.00,33.36 525.58,31.84 524.73,30.31
             523.90,28.79 522.77,27.48 521.33,26.36
             519.89,25.23 518.19,24.31 516.23,23.59
             514.29,22.87 512.16,22.50 509.84,22.50
             505.13,22.50 501.14,23.84 497.86,26.53
             494.59,29.21 491.80,33.31 489.50,38.83
             489.50,38.83 491.66,40.03 491.66,40.03
             493.27,36.31 495.50,33.46 498.34,31.48 Z
           M 585.12,25.52
           C 582.16,27.53 579.57,30.30 577.33,33.84
             575.09,37.38 573.30,41.56 571.98,46.39
             570.66,51.21 570.00,56.39 570.00,61.92
             570.00,67.31 570.66,72.38 571.98,77.12
             573.30,81.87 575.09,86.01 577.33,89.55
             579.57,93.08 582.16,95.87 585.12,97.92
             588.09,99.98 591.26,101.00 594.62,101.00
             597.98,101.00 601.14,99.95 604.11,97.86
             607.08,95.77 609.66,92.93 611.86,89.36
             614.05,85.78 615.80,81.62 617.08,76.88
             618.36,72.14 619.00,67.11 619.00,61.80
             619.00,56.35 618.34,51.23 617.02,46.45
             615.69,41.66 613.91,37.50 611.67,33.97
             609.43,30.43 606.83,27.63 603.86,25.58
             600.90,23.53 597.78,22.50 594.50,22.50
             591.22,22.50 588.09,23.51 585.12,25.52 Z
           M 578.64,61.81
           C 578.64,49.19 579.79,39.87 582.09,33.84
             584.39,27.81 588.53,24.80 594.50,24.80
             600.55,24.80 604.71,27.86 606.97,33.97
             609.23,40.07 610.36,49.36 610.36,61.81
             610.36,74.27 609.23,83.54 606.97,89.61
             604.71,95.67 600.55,98.70 594.50,98.70
             583.93,98.70 578.64,86.41 578.64,61.81 Z
           M 671.12,25.52
           C 668.16,27.53 665.57,30.30 663.33,33.84
             661.09,37.38 659.30,41.56 657.98,46.39
             656.66,51.21 656.00,56.39 656.00,61.92
             656.00,67.31 656.66,72.38 657.98,77.12
             659.30,81.87 661.09,86.01 663.33,89.55
             665.57,93.08 668.16,95.87 671.12,97.92
             674.09,99.98 677.26,101.00 680.62,101.00
             683.98,101.00 687.14,99.95 690.11,97.86
             693.08,95.77 695.66,92.93 697.86,89.36
             700.05,85.78 701.80,81.62 703.08,76.88
             704.36,72.14 705.00,67.11 705.00,61.80
             705.00,56.35 704.34,51.23 703.02,46.45
             701.69,41.66 699.91,37.50 697.67,33.97
             695.43,30.43 692.83,27.63 689.86,25.58
             686.90,23.53 683.78,22.50 680.50,22.50
             677.22,22.50 674.09,23.51 671.12,25.52 Z
           M 664.64,61.81
           C 664.64,49.19 665.79,39.87 668.09,33.84
             670.39,27.81 674.53,24.80 680.50,24.80
             686.55,24.80 690.71,27.86 692.97,33.97
             695.23,40.07 696.36,49.36 696.36,61.81
             696.36,74.27 695.23,83.54 692.97,89.61
             690.71,95.67 686.55,98.70 680.50,98.70
             669.93,98.70 664.64,86.41 664.64,61.81 Z
           M 743.00,79.00
           C 743.00,79.00 771.00,79.00 771.00,79.00
             771.00,79.00 771.00,74.00 771.00,74.00
             771.00,74.00 743.00,74.00 743.00,74.00
             743.00,74.00 743.00,79.00 743.00,79.00 Z
           M 849.00,98.19
           C 849.00,98.19 843.33,97.22 843.33,97.22
             840.44,96.73 839.00,95.12 839.00,92.38
             839.00,92.38 839.00,23.00 839.00,23.00
             839.00,23.00 835.00,23.00 835.00,23.00
             827.24,30.59 820.73,36.15 815.48,39.69
             815.48,39.69 817.17,41.98 817.17,41.98
             817.17,41.98 831.00,32.67 831.00,32.67
             831.00,32.67 831.00,92.38 831.00,92.38
             831.00,94.88 829.66,96.45 826.98,97.09
             826.98,97.09 821.00,98.19 821.00,98.19
             821.00,98.19 821.00,100.00 821.00,100.00
             823.07,100.00 825.30,100.00 827.70,100.00
             830.10,100.00 832.53,100.00 835.00,100.00
             837.48,100.00 839.91,100.00 842.31,100.00
             844.71,100.00 846.94,100.00 849.00,100.00
             849.00,100.00 849.00,98.19 849.00,98.19 Z
           M 935.00,98.19
           C 935.00,98.19 929.33,97.22 929.33,97.22
             926.44,96.73 925.00,95.12 925.00,92.38
             925.00,92.38 925.00,23.00 925.00,23.00
             925.00,23.00 921.00,23.00 921.00,23.00
             913.24,30.59 906.73,36.15 901.48,39.69
             901.48,39.69 903.17,41.98 903.17,41.98
             903.17,41.98 917.00,32.67 917.00,32.67
             917.00,32.67 917.00,92.38 917.00,92.38
             917.00,94.88 915.66,96.45 912.98,97.09
             912.98,97.09 907.00,98.19 907.00,98.19
             907.00,98.19 907.00,100.00 907.00,100.00
             909.07,100.00 911.30,100.00 913.70,100.00
             916.10,100.00 918.53,100.00 921.00,100.00
             923.48,100.00 925.91,100.00 928.31,100.00
             930.71,100.00 932.94,100.00 935.00,100.00
             935.00,100.00 935.00,98.19 935.00,98.19 Z
           M 984.00,36.69
           C 984.00,36.69 986.62,36.69 986.62,36.69
             986.62,36.69 987.59,31.58 987.59,31.58
             987.66,30.53 988.74,30.00 990.81,30.00
             990.81,30.00 1023.06,30.00 1023.06,30.00
             1017.25,44.57 1012.43,57.53 1008.61,68.88
             1004.80,80.21 1001.93,90.09 1000.02,98.50
             1000.02,98.50 1003.95,98.50 1003.95,98.50
             1004.67,94.07 1008.49,81.93 1015.42,62.08
             1019.00,52.01 1021.99,43.91 1024.39,37.78
             1026.79,31.65 1028.66,27.37 1030.00,24.95
             1030.00,24.95 1030.00,23.00 1030.00,23.00
             1030.00,23.00 984.00,23.00 984.00,23.00
             984.00,23.00 984.00,36.69 984.00,36.69 Z
           M 1070.00,36.69
           C 1070.00,36.69 1072.62,36.69 1072.62,36.69
             1072.62,36.69 1073.59,31.58 1073.59,31.58
             1073.66,30.53 1074.74,30.00 1076.81,30.00
             1076.81,30.00 1109.06,30.00 1109.06,30.00
             1103.25,44.57 1098.43,57.53 1094.61,68.88
             1090.80,80.21 1087.93,90.09 1086.02,98.50
             1086.02,98.50 1089.95,98.50 1089.95,98.50
             1090.67,94.07 1094.49,81.93 1101.42,62.08
             1105.00,52.01 1107.99,43.91 1110.39,37.78
             1112.79,31.65 1114.66,27.37 1116.00,24.95
             1116.00,24.95 1116.00,23.00 1116.00,23.00
             1116.00,23.00 1070.00,23.00 1070.00,23.00
             1070.00,23.00 1070.00,36.69 1070.00,36.69 Z" />
</svg>
